Structuring Your (Data Science/Analysis) Projects
…
---

# Clean Data

```
## # A tibble: 317 x 81
##     year artist track time  date.entered   wk1   wk2   wk3   wk4   wk5
##    <int> <chr>  <chr> <tim> <date>       <int> <int> <int> <int> <int>
##  1  2000 2 Pac  Baby… 04:22 2000-02-26      87    82    72    77    87
##  2  2000 2Ge+h… The … 03:15 2000-09-02      91    87    92    NA    NA
##  3  2000 3 Doo… Kryp… 03:53 2000-04-08      81    70    68    67    66
##  4  2000 3 Doo… Loser 04:24 2000-10-21      76    76    72    69    67
##  5  2000 504 B… Wobb… 03:35 2000-04-15      57    34    25    17    17
##  6  2000 98?    Give… 03:24 2000-08-19      51    39    34    26    26
##  7  2000 A*Tee… Danc… 03:44 2000-07-08      97    97    96    95   100
##  8  2000 Aaliy… I Do… 04:15 2000-01-29      84    62    51    41    38
##  9  2000 Aaliy… Try … 04:03 2000-03-18      59    53    38    28    21
## 10  2000 Adams… Open… 05:30 2000-08-26      76    76    74    69    68
## # ... with 307 more rows, and 71 more variables: wk6 <int>, wk7 <int>,
## #   wk8 <int>, wk9 <int>, wk10 <int>, wk11 <int>, wk12 <int>, wk13 <int>,
## #   wk14 <int>, wk15 <int>, wk16 <int>, wk17 <int>, wk18 <int>,
## #   wk19 <int>, wk20 <int>, wk21 <int>, wk22 <int>, wk23 <int>,
## #   wk24 <int>, wk25 <int>, wk26 <int>, wk27 <int>, wk28 <int>,
## #   wk29 <int>, wk30 <int>, wk31 <int>, wk32 <int>, wk33 <int>,
## #   wk34 <int>, wk35 <int>, wk36 <int>, wk37 <int>, wk38 <int>,
## #   wk39 <int>, wk40 <int>, wk41 <int>, wk42 <int>, wk43 <int>,
## #   wk44 <int>, wk45 <int>, wk46 <int>, wk47 <int>, wk48 <int>,
…
